FEDERICO;ALIMENTI;RICERCATORE UNIVERSITARIO - RU;04/05/68;UNIVERSIT_ DEGLI STUDI DI PERUGIA;FEDERICO.ALIMENTI@UNIPG.IT;PERUGIA;Elettronica delle microonde e delle onde millimetriche
VALERIO;ANNOVAZZI LODI;PROFESSORE ORDINARIO - PO;07/11/55;UNIVERSITA\' DI PAVIA;VALERIO.ANNOVAZZI@UNIPV.IT;PAVIA;Optoelettronica e Fotonica
RITA;ASQUINI;PROFESSORE ASSOCIATO - PA;07/09/68;SAPIENZA UNIVERSIT_ DI ROMA - DIPARTIMENTO DI INGEGNERIA DELL\'INFORMAZIONE, ELETTRONICA E TELECOMUNICAZIONI;RITA.ASQUINI@UNIROMA1.IT;ROMA LA SAPIENZA;Optoelettronica e Fotonica
GAETANO;ASSANTO;PROFESSORE ASSOCIATO - PA;09/02/58;UNIV. ROMA TRE;ASSANTO@UNIROMA3.IT;ROMA 3;Optoelettronica e Fotonica
GIANFRANCO;AVITABILE;PROFESSORE ASSOCIATO - PA;15/09/58;POLITECNICO DI BARI;GFA@POLIBA.IT;BARI;Elettronica delle microonde e delle onde millimetriche
MARCO;BALUCANI;RICERCATORE UNIVERSITARIO - RU;14/11/64;DIET - SAPIENZA UNIVERSIT_ DI ROMA;MARCO.BALUCANI@UNIROMA1.IT;ROMA LA SAPIENZA;Dispositivi micro e nano elettronici
MASSIMO;BARBARO;PROFESSORE ASSOCIATO - PA;11/08/72;UNIVERSIT_ DI CAGLIARI - DIEE;BARBARO@UNICA.IT;CAGLIARI;Sistema elettronici integrati
GIUSEPPE;BARILLARO;PROFESSORE ASSOCIATO - PA;02/05/73;DIP. INGEGNERIA INFORMAZIONE, UNIVERSIT_ DI PISA;G.BARILLARO@IET.UNIPI.IT;PISA;Sensori, microsistemi e strumentazione
FEDERICO;BARONTI;RICERCATORE UNIVERSITARIO - RU;05/11/75;UNIVERSIT_ DI PISA - DIP. ING. INFORMAZIONE;FEDERICO.BARONTI@UNIPI.IT;PISA;Sistemi elettronici ed applicazioni
GIANCARLO;BARTOLUCCI;PROFESSORE ASSOCIATO - PA;22/09/58;DIPARTIMENTO DI INGEGNERIA ELETTRONICA - UNIVERSIT_ DI ROMA TOR VERGATA;BARTOLUCCI@ELN.UNIROMA2.IT;ROMA TOR VERGATA;Elettronica delle microonde e delle onde millimetriche
MATTEO;BASSI;RICERCATORE UNIVERSITARIO - RTDA;08/12/85;UNIVERSIT_ DEGLI STUDI DI PAVIA;MATTEO.BASSI@UNIPV.IT;PAVIA;Elettronica delle microonde e delle onde millimetriche
FRANCESCO;BELLOTTI;RICERCATORE UNIVERSITARIO - RU;03/06/72;UNIVERSIT_ DI GENOVA;FRANZ@ELIOS.UNIGE.IT;GENOVA;Sistemi elettronici ed applicazioni
LUCA;BENINI;PROFESSORE ORDINARIO - PO;01/07/67;DEI UNIVERSITA\' DI BOLOGNA;LUCA.BENINI@UNIBO.IT;BOLOGNA;Sistema elettronici integrati
RICCARDO;BERTA;RICERCATORE UNIVERSITARIO - RU;06/01/74;UNIVERSIT_ DI GENOVA - DITEN;RICCARDO.BERTA@UNIGE.IT;GENOVA;Sistemi elettronici ed applicazioni
GIUSEPPE;BERTUCCIO;PROFESSORE ASSOCIATO - PA;18/08/62;POLITECNICO DI MILANO - DEIB;GIUSEPPE.BERTUCCIO@POLIMI.IT;MILANO;Sensori, microsistemi e strumentazione
ANDREA;BEVILACQUA;PROFESSORE ASSOCIATO - PA;21/11/75;DEI - UNIVERSITA` DI PADOVA;ANDREA.BEVILACQUA@DEI.UNIPD.IT;PADOVA;Sistema elettronici integrati
ELENA;BIAGI;PROFESSORE ASSOCIATO - PA;14/04/56;DIPARTIMENTO DI INGEGNERIA DELL\'INFORMAZIONE;ELENA.BIAGI@UNIFI.IT;FIRENZE;Sistemi elettronici ed applicazioni
FABRIZIO;BONANI;PROFESSORE ORDINARIO - PO;20/02/67;POLITECNICO DI TORINO;FABRIZIO.BONANI@POLITO.IT;TORINO;Dispositivi micro e nano elettronici
ANDREA GIOVANNI;BONFANTI;PROFESSORE ASSOCIATO - PA;28/05/72;POLITECNICO DI MILANO, DIPARTIMENTO DI ELETTRONICA, INFORMAZIONE E BIOINGEGNERIA (DEIB);ANDREA.BONFANTI@POLIMI.IT;MILANO;Sistema elettronici integrati
ANNALISA;BONFIGLIO;PROFESSORE ASSOCIATO - PA;09/09/66;UNIVERSITA\' DI CAGLIARI;ANNALISA@DIEE.UNICA.IT;CAGLIARI;Sensori, microsistemi e strumentazione
ENRICO;BONI;RICERCATORE UNIVERSITARIO - RTDA;09/04/77;UNIVERSIT_ DEGLI STUDI DI FIRENZE;ENRICO.BONI@UNIFI.IT;FIRENZE;Sistema elettronici integrati
ANDREA;BONI;PROFESSORE ASSOCIATO - PA;15/06/68;UNIVERSIT_ DI PARMA;ANDREA.BONI@UNIPR.IT;PARMA;Sistema elettronici integrati
GIOVANNI;BREGLIO;PROFESSORE ASSOCIATO - PA;09/04/65;UNIVERSIT_ DI NAPOLI FEDERICO II - DIETI;BREGLIO@UNINA.IT;NAPOLI FEDERICO II;Optoelettronica e Fotonica
THOMAS MEREDITH;BROWN;PROFESSORE ASSOCIATO - PA;12/07/71;DIPARTIMENTO DI INGEGNERIA ELETTRONICA, UNIVERSIT_ DEGLI STUDI DI ROMA \;THOMAS.BROWN@UNIROMA2.IT;ROMA TOR VERGATA;Optoelettronica e Fotonica
DAVIDE;BRUNELLI;RICERCATORE UNIVERSITARIO - RTDB;26/03/77;UNIVERSIT_ DI TRENTO;DAVIDE.BRUNELLI@UNITN.IT;TRENTO;Sistemi elettronici ed applicazioni
FRANCESCA;BRUNETTI;RICERCATORE UNIVERSITARIO - RU;31/08/77;UNIVERSIT_ DI ROMA TOR VERGATA;FRANCESCA.BRUNETTI@UNIROMA2.IT;ROMA TOR VERGATA;Optoelettronica e Fotonica
PAOLO;BRUSCHI;PROFESSORE ASSOCIATO - PA;31/05/64;UNIVERSIT_ DI PISA;P.BRUSCHI@IET.UNIPI.IT;PISA;Sistema elettronici integrati
ANTONIO;BUONOMO;PROFESSORE ORDINARIO - PO;04/07/49;SECONDA UNIVERSIT_ DI NAPOLI;ANTONIO.BUONOMO@UNINA2.IT;NAPOLI SECONDA;Sistema elettronici integrati
ALESSANDRO;BUSACCA;PROFESSORE ASSOCIATO - PA;08/11/75;DEIM - UNIVERSIT_ DEGLI STUDI DI PALERMO;ALESSANDRO.BUSACCA@UNIPA.IT;PALERMO;Optoelettronica e Fotonica
GIOVANNI;BUSATTO;PROFESSORE ORDINARIO - PO;25/10/57;DIEI - UNIVERSIT_ DEGLI STUDI DI CASSINO E DEL LAZIO MERIDIONALE;BUSATTO@UNICAS.IT;CASSINO;Elettronica di potenza ed applicazioni industriali
SIMONE;BUSO;PROFESSORE ASSOCIATO - PA;06/02/68;UNIVERSIT_ DI PADOVA;SIMONE.BUSO@UNIPD.IT;PADOVA;Elettronica di potenza ed applicazioni industriali
ALESSANDRO;CABRINI;RICERCATORE UNIVERSITARIO - RTDA;11/02/74;DIP. INGEGNERIA INDUSTRIALE E DELL\'INFORMAZIONE;ALESSANDRO.CABRINI@UNIPV.IT;PAVIA;Sistema elettronici integrati
ALINA;CADDEMI;PROFESSORE ORDINARIO - PO;31/08/59;DIPARTIMENTO DI INGEGNERIA;ACADDEMI@UNIME.IT;MESSINA;Elettronica delle microonde e delle onde millimetriche
CLAUDIO;CALI';PROFESSORE ORDINARIO - PO;06/10/48;DEIM - UNIVERSIT_ DI PALERMO;CLAUDIO.CALI@UNIPA.IT;PALERMO;Optoelettronica e Fotonica
VITTORIO;CAMARCHIA;PROFESSORE ASSOCIATO - PA;02/04/72;POLITECNICO DI TORINO;VITTORIO.CAMARCHIA@POLITO.IT;TORINO;Elettronica delle microonde e delle onde millimetriche
STEFANIA;CAMPOPIANO;PROFESSORE ASSOCIATO - PA;25/08/72;UNIVERSIT_ DEGLI STUDI DI NAPOLI \;STEFANIA.CAMPOPIANO@UNIPARTHENOPE.IT;NAPOLI PARTHENOPE;Optoelettronica e Fotonica
LORENZO;CAPINERI;PROFESSORE ASSOCIATO - PA;28/04/62;DINFO - UNIFI;LORENZO.CAPINERI@UNIFI.IT;FIRENZE;Sensori, microsistemi e strumentazione
FEDERICA;CAPPELLUTI;RICERCATORE UNIVERSITARIO - RU;17/01/73;DET - POLITECNICO DI TORINO;FEDERICA.CAPPELLUTI@POLITO.IT;TORINO;Optoelettronica e Fotonica
GREGORIO;CAPPUCCINO;PROFESSORE ASSOCIATO - PA;28/06/67;DIMES UNICAL;CAPPUCCINO@UNICAL.IT;COSENZA;Sistemi elettronici ed applicazioni
DOMENICO;CAPUTO;PROFESSORE ASSOCIATO - PA;03/09/63;DIET-UNIVERSIT_ DI ROMA \;DOMENICO.CAPUTO@UNIROMA1.IT;ROMA LA SAPIENZA;Sensori, microsistemi e strumentazione
GIAN CARLO;CARDARILLI;PROFESSORE ORDINARIO - PO;28/04/56;UNIVERSIT_ DEGLI STUDI DI ROMA TOR VERGATA;G.CARDARILLI@UNIROMA2.IT;ROMA TOR VERGATA;Sistemi elettronici ed applicazioni
ALBERTO;CARINI;PROFESSORE ASSOCIATO - PA;05/06/67;UNIVERSIT_ DI URBINO CARLO BO;ALBERTO.CARINI@UNIURB.IT;TRIESTE;Sistemi elettronici ed applicazioni
MARCO;CARMINATI;RICERCATORE UNIVERSITARIO - RTDA;11/10/81;POLITECNICO DI MILANO;MARCO1.CARMINATI@POLIMI.IT;MILANO;Sensori, microsistemi e strumentazione
RICCARDO;CAROTENUTO;PROFESSORE ASSOCIATO - PA;29/03/63;UNIVERSIT_ MEDITERRANEA DI REGGIO CALABRIA;R.CAROTENUTO@UNIRC.IT;COSENZA;Sistemi elettronici ed applicazioni
SERGIO;CARRATO;PROFESSORE ASSOCIATO - PA;06/12/60;DIA, UNIVERSITA\' DI TRIESTE;CARRATO@UNITS.IT;TRIESTE;Sistemi elettronici ed applicazioni
RINALDO;CASTELLO;PROFESSORE ORDINARIO - PO;16/01/53;UNIVERSIT_ DI PAVIA;RINALDO.CASTELLO@UNIPV.IT;PAVIA;Sistema elettronici integrati
MARIO ROBERTO;CASU;PROFESSORE ASSOCIATO - PA;04/04/73;POLITECNICO DI TORINO, DIPARTIMENTO DI ELETTRONICA E TELECOMUNICAZIONI;MARIO.CASU@POLITO.IT;TORINO;Sistema elettronici integrati
FRANCESCO;CENTURELLI;RICERCATORE UNIVERSITARIO - RU;25/01/71;UNIVERSIT_ DI ROMA LA SAPIENZA;CENTURELLI@DIET.UNIROMA1.IT;ROMA LA SAPIENZA;Sistema elettronici integrati
ANDREA;CESTER;PROFESSORE ASSOCIATO - PA;17/11/73;UNIVERSIT_ DI PADOVA;CESTER@DEI.UNIPD.IT;PADOVA;Dispositivi micro e nano elettronici
WALTER;CICCOGNANI;RICERCATORE UNIVERSITARIO - RU;02/07/77;UNIVERSIT_ DEGLI SUDI DI ROMA TOR VERGATA;WALTER.CICCOGNANI@UNIROMA2.IT;ROMA TOR VERGATA;Elettronica delle microonde e delle onde millimetriche
ALESSANDRO;CIDRONALI;PROFESSORE ASSOCIATO - PA;01/08/65;UNIVERSIT_ DI FIRENZE;ALESSANDRO.CIDRONALI@UNIFI.IT;FIRENZE;Elettronica delle microonde e delle onde millimetriche
CATERINA;CIMINELLI;PROFESSORE ASSOCIATO - PA;12/06/68;POLITECNICO DI BARI;CATERINA.CIMINELLI@POLIBA.IT;BARI;Optoelettronica e Fotonica
ALFONSO CARMELO;CINO;RICERCATORE UNIVERSITARIO - RU;30/03/64;UNIVERSIT_ DI PALERMO;ALFONSOCARMELO.CINO@UNIPA.IT;PALERMO;Optoelettronica e Fotonica
CARMINE;CIOFI;PROFESSORE ORDINARIO - PO;25/12/65;DIPARTIMENTO DI INGEGNERIA, UNIV. DI MESSINA;CCIOFI@UNIME.IT;MESSINA;Sensori, microsistemi e strumentazione
GIUSEPPE;COCORULLO;PROFESSORE ORDINARIO - PO;02/01/52;UNIVERSIT_ DELLA CALABRIA;GIUSEPPE.COCORULLO@UNICAL.IT;COSENZA;Sensori, microsistemi e strumentazione
LORENZO;COLACE;PROFESSORE ASSOCIATO - PA;27/09/65;DIPARTIMENTO DI INGEGNERIA - UNIVERSIT_ DEGLI STUDI ROMA TRE;LORENZO.COLACE@UNIROMA3.IT;ROMA 3;Optoelettronica e Fotonica
LUIGI;COLALONGO;PROFESSORE ASSOCIATO - PA;23/07/65;UNIVERSIT_ DI BRESCIA;LUIGI.COLALONGO@UNIBS.IT;BRESCIA;Dispositivi micro e nano elettronici
SERGIO;COLANGELI;RICERCATORE UNIVERSITARIO - RTDA;06/06/84;UNIVERSIT_ DEGLI STUDI DI ROMA TOR VERGATA;COLANGELI@ING.UNIROMA2.IT;ROMA TOR VERGATA;Elettronica delle microonde e delle onde millimetriche
PAOLO;COLANTONIO;PROFESSORE ASSOCIATO - PA;22/03/69;UNIVERSIT_ DEGLI STUDI DI ROMA TOR VERGATA;PAOLO.COLANTONIO@UNIROMA2.IT;ROMA TOR VERGATA;Elettronica delle microonde e delle onde millimetriche
GIOVANNI;COLLOFI;RICERCATORE UNIVERSITARIO - RU;01/08/65;UNIVERSITY OF FLORENCE;GIOVANNI.COLLODI@UNIFI.IT;FIRENZE;Elettronica delle microonde e delle onde millimetriche
MARCO;CONSALES;RICERCATORE UNIVERSITARIO - RU;11/12/79;UNIVERSITA\' DEGLI STUDI DEL SANNIO;CONSALES@UNISANNIO.IT;BENEVENTO;Optoelettronica e Fotonica
LUCA;CORRADINI;RICERCATORE UNIVERSITARIO - RU;22/03/78;UNIVERSIT_ DI PADOVA - DIPARTIMENTO DI INGEGNERIA DELL\'INFORMAZIONE;LUCA.CORRADINI@DEI.UNIPD.IT;PADOVA;Elettronica di potenza ed applicazioni industriali
PASQUALE;CORSONELLO;PROFESSORE ASSOCIATO - PA;04/05/64;DIMES-UNIVERSITA\' DELLA CALABRIA;P.CORSONELLO@UNICAL.IT;COSENZA;Sistema elettronici integrati
PIERO;COSSEDDU;PROFESSORE ASSOCIATO - PA;15/12/75;UNIVERSITA\' DI CAGLIARI;PIERO.COSSEDDU@DIEE.UNICA.IT;CAGLIARI;Dispositivi micro e nano elettronici
ISODIANA;CRUPI;PROFESSORE ASSOCIATO - PA;11/05/74;DEIM - UNIVERSIT_ DEGLI STUDI DI PALERMO;ISODIANA.CRUPI@UNIPA.IT;PALERMO;Dispositivi micro e nano elettronici
FELICE;CRUPI;PROFESSORE ASSOCIATO - PA;21/12/72;UNIVERSIT_ DELLA CALABRIA;FELICE.CRUPI@UNICAL.IT;COSENZA;Dispositivi micro e nano elettronici
GIOVANNI;CRUPI;RICERCATORE UNIVERSITARIO - RTDB;15/09/78;UNIVERSITA DI MESSINA, DIPARTIMENTO DI INGEGNERIA;CRUPIG@UNIME.IT;MESSINA;Elettronica delle microonde e delle onde millimetriche
ANDREA;CUSANO;PROFESSORE ASSOCIATO - PA;31/05/71;UNIVERSITA\' DEGLI STUDI DEL SANNIO;A.CUSANO@UNISANNIO.IT;BENEVENTO;Optoelettronica e Fotonica
PASQUALE;CUSUMANO;RICERCATORE UNIVERSITARIO - RU;11/10/64;DIPARTIMENTO ENERGIA, INGEGNERIA DELL\'INFORMAZIONE E MODELLI MATEMATICI (DEIM);PASQUALE.CUSUMANO@UNIPA.IT;PALERMO;Dispositivi micro e nano elettronici
ANTONELLO;CUTOLO;PROFESSORE ORDINARIO - PO;07/11/55;UNIVERSITA\' DEGLI STUDI DEL SANNIO;CUTOLO@UNISANNIO.IT;BENEVENTO;Optoelettronica e Fotonica
ANTONIO;D'ALESSANDRO;PROFESSORE ASSOCIATO - PA;20/10/63;DIET - SAPIENZA UNIVERSITA\' DI ROMA;ANTONIO.DALESSANDRO@UNIROMA1.IT;ROMA LA SAPIENZA;Optoelettronica e Fotonica
VINCENZO;D'ALESSANDRO;PROFESSORE ASSOCIATO - PA;29/04/69;DIPARTIMENTO DI INGEGNERIA ELETTRICA E DELLE TECNOLOGIE DELL\'INFORMAZIONE;VINDALES@UNINA.IT;NAPOLI FEDERICO II;Dispositivi micro e nano elettronici
STEFANO;D'AMICO;PROFESSORE ASSOCIATO - PA;21/12/76;UNIVERSIT_ DEL SALENTO;STEFANO.DAMICO@UNISALENTO.IT;LECCE;Sistema elettronici integrati
GIAN-FRANCO;DALLA BETTA;PROFESSORE ORDINARIO - PO;07/05/67;UNIVERSIT_ DI TRENTO;GIANFRANCO.DALLABETTA@UNITN.IT;TRENTO;Sensori, microsistemi e strumentazione
DAVIDE;DE CARO;PROFESSORE ASSOCIATO - PA;09/02/73;UNIV. DI NAPOLI FEDERICO II - DIP. ING. ELETTRICA E DELLA TECNOLOGIE DELL\'INFORMAZIONE;DADECARO@UNINA.IT;NAPOLI FEDERICO II;Sistema elettronici integrati
GIAMPIERO;DE CESARE;PROFESSORE ASSOCIATO - PA;13/10/54;DIET- UNIVERSITY OF ROME \;GIAMPIERO.DECESARE@UNIROMA1.IT;ROMA LA SAPIENZA;Sensori, microsistemi e strumentazione
FRANCESCO;DE LEONARDIS;RICERCATORE UNIVERSITARIO - RU;11/10/71;POLITECNICO DI BARI;FRANCESCO.DELEONARDIS@POLIBA.IT;BARI;Optoelettronica e Fotonica
LUCA;DE MARCHI;RICERCATORE UNIVERSITARIO - RTDA;13/12/77;UNIVERSIT_ DI BOLOGNA;L.DEMARCHI@UNIBO.IT;BOLOGNA;Sistemi elettronici ed applicazioni
MASSIMO;DE VITTORIO;PROFESSORE ASSOCIATO - PA;10/05/67;ISTITUTO ITALIANO DI TECNOLOGIA;MASSIMO.DEVITTORIO@IIT.IT;LECCE;Sensori, microsistemi e strumentazione
DANTE;DEL CORSO;PROFESSORE ORDINARIO - PO;20/11/46;POLITECNICO DI TORINO - DET;DANTE.DELCORSO@POLITO.IT;TORINO;Sistemi elettronici ed applicazioni
FRANCESCO;DELL'OLIO;RICERCATORE UNIVERSITARIO - RTDA;17/04/81;POLITECNICO DI BARI;FRANCESCO.DELLOLIO@POLIBA.IT;BARI;Optoelettronica e Fotonica
FRANCESCO GIUSEPPE;DELLA CORTE;PROFESSORE ORDINARIO - PO;29/07/61;DIIES - UNIVERSIT_ DEGLI STUDI MEDITERRANEA;FRANCESCO.DELLACORTE@UNIRC.IT;COSENZA;Optoelettronica e Fotonica
NICOLA;DELMONTE;RICERCATORE UNIVERSITARIO - RTDB;10/03/67;DIPARTIMENTO DI INGEGNERIA DELL\'INFORMAZIONE;NICOLA.DELMONTE@UNIPR.IT;PARMA;Elettronica di potenza ed applicazioni industriali
DANILO;DEMARCHI;PROFESSORE ASSOCIATO - PA;06/12/64;POLITECNICO DI TORINO;DANILO.DEMARCHI@POLITO.IT;TORINO;Sistemi elettronici ed applicazioni
ALESSANDRO;DEPARI;RICERCATORE UNIVERSITARIO - RU;01/11/76;UNIVERSIT_ DI BRESCIA;ALESSANDRO.DEPARI@UNIBS.IT;BRESCIA;Sensori, microsistemi e strumentazione
ALDO;DI CARLO;PROFESSORE ORDINARIO - PO;10/01/67;DIPARTIMENTO DI INGEGNERIA ELETTRONICA, UNIVERSIT_ DEGLI STUDI DI ROMA \;ALDO.DICARLO@UNIROMA2.IT;ROMA TOR VERGATA;Optoelettronica e Fotonica
CORRADO;DI NATALE;PROFESSORE ORDINARIO - PO;25/04/61;UNIVERSIT_ DI ROMA TOR VERGATA, DIPARTIMENTO DI INGEGNERIA ELETTRONICA;DINATALE@UNIROMA2.IT;ROMA TOR VERGATA;Sensori, microsistemi e strumentazione
STEFANO;DI PASCOLI;PROFESSORE ASSOCIATO - PA;26/05/67;DIP. ING. INFORMAZIONE;STEFANO.DI.PASCOLI@UNIPI.IT;PISA;Sistemi elettronici ed applicazioni
ERMANNO;DI ZITTI;PROFESSORE ASSOCIATO - PA;13/08/55;UNIVERSIT_ DI GENOVA;DIZITTI@UNIGE.IT;GENOVA;Sistemi elettronici ed applicazioni
SIMONA;DONATI GUERRIERI;PROFESSORE ASSOCIATO - PA;15/02/69;POLITECNICO DI TORINO - DET;SIMONA.DONATI@POLITO.IT;TORINO;Dispositivi micro e nano elettronici
NICOLA;DONATO;PROFESSORE ASSOCIATO - PA;05/05/71;UNIVERSIT_ DEGLI STUDI DI MESSINA;NDONATO@UNIME.IT;MESSINA;Sensori, microsistemi e strumentazione
GIULIANO;DONZELLINI;RICERCATORE UNIVERSITARIO - RU;05/09/54;DITEN - UNIVERSIT_ DI GENOVA;GIULIANO.DONZELLINI@UNIGE.IT;GENOVA;Sistemi elettronici ed applicazioni
FRANCESCO;DRIUSSI;RICERCATORE UNIVERSITARIO - RU;27/11/75;UNIVERSIT_ DEGLI STUDI DI UDINE;FRANCESCO.DRIUSSI@UNIUD.IT;UDINE;Dispositivi micro e nano elettronici
DAVID;ESSENI;PROFESSORE ORDINARIO - PO;30/08/69;UNIVERSIT_ DEGLI STUDI DI UDINE;DAVID.ESSENI@UNIUD.IT;UDINE;Dispositivi micro e nano elettronici
MARCO;FACCIO;PROFESSORE ASSOCIATO - PA;06/08/54;UNIVAQ;MARCO.FACCIO@UNIVAQ.IT;L\'AQUILA;Sistema elettronici integrati
CHRISTIAN;FALCONI;RICERCATORE UNIVERSITARIO - RU;29/05/73;UNIVERSIT_ DI ROMA TOR VERGATA;FALCONI@ELN.UNIROMA2.IT;ROMA TOR VERGATA;Sensori, microsistemi e strumentazione
FAUSTO;FANTINI;PROFESSORE ORDINARIO - PO;15/04/46;UNIVERSIT_ DI MODENA E REGGIO EMILIA;FAUSTO.FANTINI@UNIMORE.IT;MODENA E REGGIO EMILIA;Dispositivi micro e nano elettronici
LUCA;FANUCCI;PROFESSORE ORDINARIO - PO;17/03/65;DIP. INGEGNERIA DELL\'INFORMAZIONE - UNIVERSIT_ DI PISA;LUCA.FANUCCI@UNIPI.IT;PISA;Sistemi elettronici ed applicazioni
ALBERTO;FAZZI;PROFESSORE ASSOCIATO - PA;30/05/57;DIP. ENERGIA DEL POLITECNICO DI MILANO;ALBERTO.FAZZI@POLIMI.IT;MILANO;Sensori, microsistemi e strumentazione
VINCENZO;FERRARA;PROFESSORE ASSOCIATO - PA;22/02/55;DIPARTIMENTO DI INGEGNERIA DELL\'INFORMAZIONE, ELETTRONICA E TELECOMUNICAZIONI (DIET) - SAPIENZA UNIVERSIT_ DI ROMA;VINCENZO.FERRARA@UNIROMA1.IT;ROMA LA SAPIENZA;Sensori, microsistemi e strumentazione
GIORGIO;FERRARI;RICERCATORE UNIVERSITARIO - RU;21/10/73;POLITECNICO DI MILANO - DEIB;GIORGIO.FERRARI@POLIMI.IT;MILANO;Sensori, microsistemi e strumentazione
PAOLO;FERRARI;PROFESSORE ASSOCIATO - PA;10/07/74;UNIVERSIT_ DI BRESCIA;PAOLO.FERRARI@UNIBS.IT;BRESCIA;Sistemi elettronici ed applicazioni
MARCO;FERRARI;PROFESSORE ASSOCIATO - PA;11/03/74;UNIVERSIT_ DI BRESCIA - DIP. DI INGEGNERIA DELL\'INFORMAZIONE;MARCO.FERRARI@UNIBS.IT;BRESCIA;Sensori, microsistemi e strumentazione
VITTORIO;FERRARI;PROFESSORE ORDINARIO - PO;03/10/62;UNIVERSIT_ DI BRESCIA - DIP. INGEGNERIA DELL\'INFORMAZIONE (DII);VITTORIO.FERRARI@UNIBS.IT;BRESCIA;Sensori, microsistemi e strumentazione
GIUSEPPE;FERRI;PROFESSORE ORDINARIO - PO;30/05/65;UNIVERSIT_ L\'AQUILA;GIUSEPPE.FERRI@UNIVAQ.IT;L\'AQUILA;Sensori, microsistemi e strumentazione
FABIO;FILICORI;PROFESSORE ORDINARIO - PO;08/01/49;FACOLT_ DI INGEGNERIA;FABIO.FILICORI@UNIBO.IT;BOLOGNA;Elettronica delle microonde e delle onde millimetriche
GIANLUCA;FIORI;RICERCATORE UNIVERSITARIO - RU;22/02/75;UNIVERSITA\' DI PISA;GFIORI@MERCURIO.IET.UNIPI.IT;PISA;Dispositivi micro e nano elettronici
ANTONINO SECONDO;FIORILLO;PROFESSORE ASSOCIATO - PA;09/08/53;UNIVERSIT_ MAGNA GRAECIA DI CATANZARO;NINO@UNICZ.IT;COSENZA;Sensori, microsistemi e strumentazione
CARLO ETTORE NICOLA;FIORINI;PROFESSORE ORDINARIO - PO;08/08/69;POLITECNICO DI MILANO;CARLO.FIORINI@POLIMI.IT;MILANO;Sensori, microsistemi e strumentazione
ALESSANDRA;FLAMMINI;PROFESSORE ORDINARIO - PO;31/01/60;UNIVERSIT_ DI BRESCIA;ALESSANDRA.FLAMMINI@UNIBS.IT;BRESCIA;Sistemi elettronici ed applicazioni
ELEONORA;FRANCHI SCARSELLI;PROFESSORE ASSOCIATO - PA;05/10/59;UNIVERSIT_ DI BOLOGNA;ELEONORA.FRANCHI@UNIBO.IT;BOLOGNA;Sistema elettronici integrati
PAOLO;GASTALDO;RICERCATORE UNIVERSITARIO - RTDA;21/11/73;DITEN - UNIV. DI GENOVA;PAOLO.GASTALDO@UNIGE.IT;GENOVA;Sistemi elettronici ed applicazioni
ANGELO;GERACI;PROFESSORE ASSOCIATO - PA;31/01/67;POLITECNICO DI MILANO - DEIB;ANGELO.GERACI@POLIMI.IT;MILANO;Sistemi elettronici ed applicazioni
SIMONE;GERARDIN;RICERCATORE UNIVERSITARIO - RTDB;14/11/77;UNIVERSIT_ DI PADOVA - DIP. INGEGNERIA INFORMAZIONE;SIMONE.GERARDIN@DEI.UNIPD.IT;PADOVA;Dispositivi micro e nano elettronici
ANDREA;GEROSA;PROFESSORE ASSOCIATO - PA;11/04/71;DIP. INGEGNERIA DELL\'INFORMAZIONE;GEROSA@DEI.UNIPD.IT;PADOVA;Sistema elettronici integrati
GIOVANNI;GHIONE;PROFESSORE ORDINARIO - PO;09/09/56;POLITECNICO DI TORINO, DET;GIOVANNI.GHIONE@POLITO.IT;TORINO;Elettronica delle microonde e delle onde millimetriche
MASSIMO ANTONIO;GHIONI;PROFESSORE ORDINARIO - PO;05/03/62;POLITECNICO DI MILANO - DIPARTIMENTO DI ELETTRONICA, INFORMAZIONE E BIOINGEGNERIA (DEIB);MASSIMO.GHIONI@POLIMI.IT;MILANO;Optoelettronica e Fotonica
GIUSEPPE COSTANTINO;GIACONIA;PROFESSORE ASSOCIATO - PA;23/12/63;UNIVERSIT_ DI PALERMO;COSTANTINO.GIACONIA@UNIPA.IT;PALERMO;Sistemi elettronici ed applicazioni
ROCCO;GIOFRE';RICERCATORE UNIVERSITARIO - RTDB;13/08/79;UNIVERSIT_ DEGLI STUDI DI ROMA TOR VERGATA;GIOFR@ING.UNIROMA2.IT;ROMA TOR VERGATA;Elettronica delle microonde e delle onde millimetriche
AGOSTINO;GIORGIO;RICERCATORE UNIVERSITARIO - RU;03/09/69;POLITECNICO DI BARI;AGOSTINO.GIORGIO@POLIBA.IT;BARI;Sistemi elettronici ed applicazioni
GINO;GIUSI;RICERCATORE UNIVERSITARIO - RTDB;14/05/77;UNIVERSIT_ DI MESSINA;GGIUSI@UNIME.IT;MESSINA;Sensori, microsistemi e strumentazione
GIANLUCA;GIUSTOLISI;PROFESSORE ASSOCIATO - PA;03/05/71;UNIVERSIT_ DEGLI STUDI DI CATANIA;GIANLUCA.GIUSTOLISI@DIEEI.UNICT.UT;CATANIA;Sistema elettronici integrati
ELENA;GNANI;PROFESSORE ASSOCIATO - PA;16/01/75;UNIVERSIT_ DI BOLOGNA;ELENA.GNANI@UNIBO.IT;BOLOGNA;Dispositivi micro e nano elettronici
ANTONIO;GNUDI;PROFESSORE ASSOCIATO - PA;18/11/59;UNIVERSIT_ DI BOLOGNA - DEI;ANTONIO.GNUDI@UNIBO.IT;BOLOGNA;Dispositivi micro e nano elettronici
MICHELE;GOANO;PROFESSORE ASSOCIATO - PA;08/10/65;POLITECNICO DI TORINO - DET;MICHELE.GOANO@POLITO.IT;TORINO;Optoelettronica e Fotonica
ALFIO DARIO;GRASSO;PROFESSORE ASSOCIATO - PA;11/04/78;UNIVERSIT_ DI CATANIA;AGRASSO@DIEEI.UNICT.IT;CATANIA;Sistema elettronici integrati
MARIAGRAZIA;GRAZIANO;RICERCATORE UNIVERSITARIO - RU;20/03/71;POLITECNICO DI TORINO;MARIAGRAZIA.GRAZIANO@POLITO.IT;TORINO;Sistemi elettronici ed applicazioni
ANGELO;GULINATTI;PROFESSORE ASSOCIATO - PA;10/04/77;POLITECNICO DI MILANO - DIPARTIMENTO DI ELETTRONICA, INFORMAZIONE E BIOINGEGNERIA;ANGELO.GULINATTI@POLIMI.IT;MILANO;Optoelettronica e Fotonica
AGOSTINO;IADICICCO;PROFESSORE ASSOCIATO - PA;05/09/74;UNIVERSIT_ DI NAPOLI PARTHENOPE, DIPARTIMENTO DI INGEGNERIA;IADICICCO@UNIPARTHENOPE.IT;NAPOLI PARTHENOPE;Optoelettronica e Fotonica
GIUSEPPE;IANNACCONE;PROFESSORE ORDINARIO - PO;28/04/68;UNIVERSIT_ DI PISA - DIPARTIMENTO DI INGEGNERIA DELL\'INFORMAZIONE;GIUSEPPE.IANNACCONE@UNIPI.IT;PISA;Dispositivi micro e nano elettronici
FRANCESCO;IANNUZZO;PROFESSORE ASSOCIATO - PA;15/10/72;UNIVERSIT_ DEGLI STUDI DI CASSINO E DEL LAZIO MERIDIONALE;IANNUZZO@UNICAS.IT;CASSINO;Elettronica di potenza ed applicazioni industriali
DANIELE;IELMINI;PROFESSORE ASSOCIATO - PA;01/08/70;POLITECNICO DI MILANO;DANIELE.IELMINI@POLIMI.IT;MILANO;Dispositivi micro e nano elettronici
ANDREA;IRACE;PROFESSORE ASSOCIATO - PA;02/12/69;UNIVERSIT_ DEGLI STUDI DI NAPOLI FEDERICO II;ANDREA.IRACE@UNINA.IT;NAPOLI FEDERICO II;Elettronica di potenza ed applicazioni industriali
FERNANDA;IRRERA;PROFESSORE ASSOCIATO - PA;27/10/59;UNIVERSIT_ DI ROMA LA SAPIENZA;FERNANDA.IRRERA@UNIROMA1.IT;ROMA LA SAPIENZA;Dispositivi micro e nano elettronici
ZSOLT MIKLOS;KOVACS VAJNA;PROFESSORE ORDINARIO - PO;04/09/63;UNIVERSIT_ DI BRESCIA-DII;ZSOLT.KOVACS@ING.UNIBS.IT;BRESCIA;Sistema elettronici integrati
ANDREA LEONARDO;LACAITA;PROFESSORE ORDINARIO - PO;20/02/62;POLITECNICO DI MILANO;ANDREA.LACAITA@POLIMI.IT;MILANO;Dispositivi micro e nano elettronici
NICOLA ANTONIO;LAMBERTI;PROFESSORE ASSOCIATO - PA;04/06/59;UNIVERSIT_ DI SALERNO;NLAMBERTI@UNISA.IT;SALERNO;Sensori, microsistemi e strumentazione
GIACOMO;LANGFELDER;RICERCATORE UNIVERSITARIO - RTDB;24/08/81;POLITECNICO DI MILANO - DEIB;GIACOMO.LANGFELDER@POLIMI.IT;MILANO;Sensori, microsistemi e strumentazione
MARCO;LANUZZA;RICERCATORE UNIVERSITARIO - RU;10/03/74;UNIVERSITA DELLA CALABRIA - DIMES;M.LANUZZA@DIMES.UNICAL.IT;COSENZA;Sistema elettronici integrati
LUCA;LARCHER;PROFESSORE ASSOCIATO - PA;29/01/72;UNIVERSIT_ DI MODENA E REGGIO EMILIA;LUCA.LARCHER@UNIMORE.IT;MODENA E REGGIO EMILIA;Dispositivi micro e nano elettronici
LUCIANO;LAVAGNO;PROFESSORE ORDINARIO - PO;13/05/59;POLITECNICO DI TORINO;LUCIANO.LAVAGNO@POLITO.IT;TORINO;Sistemi elettronici ed applicazioni
GIORGIO;LEUZZI;PROFESSORE ORDINARIO - PO;18/11/57;UNVERSIT_ DELL\'AQUILA;GIORGIO.LEUZZI@UNIVAQ.IT;L\'AQUILA;Elettronica delle microonde e delle onde millimetriche
SALVATORE FABRIZIO;LEVANTINO;PROFESSORE ASSOCIATO - PA;24/08/73;POLITECNICO DI MILANO;SALVATORE.LEVANTINO@POLIMI.IT;MILANO;Sistema elettronici integrati
GIAN DOMENICO;LICCIARDO;RICERCATORE UNIVERSITARIO - RU;10/04/74;DIPARTIMENTO DI INGEGNERIA INDUSTRIALE-UNIVERSIT_ DI SALERNO;GDLICCIARDO@UNISA.IT;SALERNO;Sistema elettronici integrati
ERNESTO;LIMITI;PROFESSORE ORDINARIO - PO;26/03/65;UNIVERSIT_ DI ROMA TOR VERGATA - DIPARTIMENTO DI INGEGNERIA ELETTRONICA;LIMITI@ING.UNIROMA2.IT;ROMA TOR VERGATA;Elettronica delle microonde e delle onde millimetriche
PATRIZIA;LIVRERI;RICERCATORE UNIVERSITARIO - RU;17/01/62;UNIVERSIT_ DEGLI STUDI DI PALERMO;PATRIZIA.LIVRERI@UNIPA.IT;PALERMO;Optoelettronica e Fotonica
ALESSANDRO;LO SCHIAVO;RICERCATORE UNIVERSITARIO - RU;30/08/72;SECONDA UNIVERSIT_ DEGLI STUDI DI NAPOLI;ALESSANDRO.LOSCHIAVO@UNINA2.IT;NAPOLI SECONDA;Sistema elettronici integrati
GIUSEPPE;LULLO;PROFESSORE ASSOCIATO - PA;17/07/65;DEIM;GIUSEPPE.LULLO@UNIPA.IT;PALERMO;Optoelettronica e Fotonica
ROBERTO;MACALUSO;RICERCATORE UNIVERSITARIO - RU;24/02/72;UNIVERSIT_ DI PALERMO;ROBERTO.MACALUSO@UNIPA.IT;PALERMO;Dispositivi micro e nano elettronici
MASSIMO;MACUCCI;PROFESSORE ORDINARIO - PO;24/02/62;UNIVERSITA` DI PISA - DIP. ING. INFORMAZIONE;M.MACUCCI@MERCURIO.IET.UNIPI.IT;PISA;Dispositivi micro e nano elettronici
GIOVANNI;MAGENES;PROFESSORE ORDINARIO - PO;11/04/56;UNIVERSIT_ DI PAVIA;GIOVANNI.MAGENES@UNIPV.IT;PAVIA;Sensori, microsistemi e strumentazione
PAOLO;MAGNONE;PROFESSORE ASSOCIATO - PA;22/06/81;UNIVERSIT_ DI PADOVA - DTG;PAOLO.MAGNONE@UNIPD.IT;PADOVA;Dispositivi micro e nano elettronici
FRANCO;MALOBERTI;PROFESSORE ORDINARIO - PO;10/12/45;UNIVERSITY DI PAVIA;FRANCO.MALOBERTI@UNIPV.IT;PAVIA;Sistema elettronici integrati
MASSIMO;MANGHISONI;RICERCATORE UNIVERSITARIO - RU;05/04/72;UNIVERSIT_ DELGI STUDI DI BERGAMO;MASSIMO.MANGHISONI@UNIBG.IT;BERGAMO;Sistema elettronici integrati
DANILO;MANSTRETTA;RICERCATORE UNIVERSITARIO - RU;19/09/73;UNIVERSIT_ DEGLI STUDI DI PAVIA;DANILO.MANSTRETTA@UNIPV.IT;PAVIA;Sistema elettronici integrati
DANIELE;MARIOLI;PROFESSORE ORDINARIO - PO;21/01/46;UNIVERSIT_ DEGLI STUDI DI BRESCIA;DANIELE.MARIOLI@UNIBS.IT;BRESCIA;Sensori, microsistemi e strumentazione
STEFANO;MARSI;RICERCATORE UNIVERSITARIO - RU;14/11/63;DIA - UNIVERSIT_ DI TRIESTE;MARSI@UNITS.IT;TRIESTE;Sistemi elettronici ed applicazioni
MAURIZIO;MARTINA;PROFESSORE ASSOCIATO - PA;26/04/75;POLITECNICO DI TORINO;MAURIZIO.MARTINA@POLITO.IT;TORINO;Sistemi elettronici ed applicazioni
EUGENIO;MARTINELLI;PROFESSORE ASSOCIATO - PA;09/09/72;DIPARTIMENTO DI INGEGNERIA ELETTRONICA, UNIVERSIT_ DEGLI STUDI DI ROMA TOR VERGATA;MARTINELLI@ING.UNIROMA2.IT;ROMA TOR VERGATA;Sensori, microsistemi e strumentazione
GIOVANNI;MARTINES;PROFESSORE ORDINARIO - PO;22/07/53;UNIVERSIT_ DI CAGLIARI;MARTINES@DIEE.UNICA.IT;CAGLIARI;Elettronica delle microonde e delle onde millimetriche
GIUSEPPE;MARTINI;RICERCATORE UNIVERSITARIO - RU;04/03/52;UNIVERSIT_ DI PAVIA - DIII;GIUSEPPE.MARTINI@UNIPV.IT;PAVIA;Optoelettronica e Fotonica
PAOLO;MATTAVELLI;PROFESSORE ORDINARIO - PO;04/04/68;UNIVERSIT_ DI PADOVA - DTG;PAOLO.MATTAVELLI@UNIPD.IT;PADOVA;Elettronica di potenza ed applicazioni industriali
ANDREA;MAZZANTI;PROFESSORE ASSOCIATO - PA;21/04/76;UNIVERSIT_ DEGLI STUDI DI PAVIA;ANDREA.MAZZANTI@UNIPV.IT;PAVIA;Sistema elettronici integrati
PAOLO;MELONI;RICERCATORE UNIVERSITARIO - RTDA;23/11/79;UNIVERSIT_ DEGLI STUDI DI CAGLIARI - DIPARTIMENTO INGEGNERIA ELETTRICA ED ELETTRONICA;PAOLO.MELONI@DIEE.UNICA.IT;CAGLIARI;Sistemi elettronici ed applicazioni
GAUDENZIO;MENEGHESSO;PROFESSORE ORDINARIO - PO;03/03/67;UNIVERSIT_ DI PADOVA - DEI;GAUSS@DEI.UNIPD.IT;PADOVA;Dispositivi micro e nano elettronici
MATTEO;MENEGHINI;RICERCATORE UNIVERSITARIO - RTDA;07/01/80;UNIVERSIT_ DI PADOVA, DIP. ING. INFORMAZIONE;MENEGO@DEI.UNIPD.IT;PADOVA;Dispositivi micro e nano elettronici
FRANCESCO;MENICHELLI;RICERCATORE UNIVERSITARIO - RU;26/09/76;DIPARTIMENTO DI INGEGNERIA DELL\'INFORMAZIONE ELETTRONICA E TELECOMUNICAZIONI;MENICHELLI@DIET.UNIROMA1.IT;ROMA LA SAPIENZA;Sistemi elettronici ed applicazioni
ROBERTO;MENOZZI;PROFESSORE ORDINARIO - PO;02/03/63;UNIVERSIT_ DEGLI STUDI DI PARMA;ROBERTO.MENOZZI@UNIPR.IT;PARMA;Dispositivi micro e nano elettronici
SABINA GIOVANNA;MERLO;PROFESSORE ASSOCIATO - PA;30/06/62;DIPARTIMENTO DI INGEGNERIA INDUSTRIALE E DELL\'INFORMAZIONE, UNIVERSIT_ DI PAVIA;SABINA.MERLO@UNIPV.IT;PAVIA;Optoelettronica e Fotonica
CECILIA;METRA;PROFESSORE ORDINARIO - PO;28/11/65;UNIVERSIT_ DI BOLOGNA;CECILIA.METRA@UNIBO.IT;BOLOGNA;Sistema elettronici integrati
ALDO;MINARDO;PROFESSORE ASSOCIATO - PA;18/11/74;DIPARTIMENTO INGEGNERIA INDUSTRIALE E DELL\'INFORMAZIONE;ALDO.MINARDO@UNINA2.IT;NAPOLI SECONDA;Optoelettronica e Fotonica
CHRISTIAN;MONZIO COMPAGNONI;PROFESSORE ASSOCIATO - PA;09/05/76;POLITECNICO DI MILANO - DEIB;CHRISTIAN.MONZIO@POLIMI.IT;MILANO;Dispositivi micro e nano elettronici
MAURO;MOSCA;RICERCATORE UNIVERSITARIO - RU;06/03/68;UNIVERSIT_ DI PALERMO;MAURO.MOSCA@UNIPA.IT;PALERMO;Optoelettronica e Fotonica
GIOVANNA;MURA;RICERCATORE UNIVERSITARIO - RTDA;10/07/72;UNIVERSIT_ DI CAGLIARI - DIEE;GIOVANNA.MURA@DIEE.UNICA.IT;CAGLIARI;Dispositivi micro e nano elettronici
ETTORE;NAPOLI;PROFESSORE ASSOCIATO - PA;14/10/71;DIETI - UNIV. DI NAPOLI FEDERICO II;ETNAPOLI@UNINA.IT;NAPOLI FEDERICO II;Sistema elettronici integrati
AUGUSTO;NASCETTI;PROFESSORE ASSOCIATO - PA;05/11/71;SAPIENZA UNIVERSIT_ DI ROMA;AUGUSTO.NASCETTI@UNIROMA1.IT;ROMA LA SAPIENZA;Sensori, microsistemi e strumentazione
DARIO ANDREA NICOLA;NATALI;PROFESSORE ASSOCIATO - PA;03/10/75;POLITECNICO DI MILANO, DIPARTIMENTO DI ELETTRONICA INFORMAZIONE E BIOINGEGNERIA;DARIO.NATALI@POLIMI.IT;MILANO;Dispositivi micro e nano elettronici
HEINRICH CHRISTOPH;NEITZERT;PROFESSORE ASSOCIATO - PA;16/01/57;UNIVERSIT_ DEGLI STUDI DI SALERNO - DIIN;NEITZERT@UNISA.IT;SALERNO;Optoelettronica e Fotonica
BRUNO;NERI;PROFESSORE ORDINARIO - PO;01/02/56;UNIVERSIT_ DI PISA;B.NERI@IET.UNIPI.IT;PISA;Sistema elettronici integrati
ANDREA;NEVIANI;PROFESSORE ORDINARIO - PO;08/05/65;DEI, UNIVERSIT_ DI PADOVA;NEVIANI@DEI.UNIPD.IT;PADOVA;Sistema elettronici integrati
MAURO;OLIVIERI;PROFESSORE ASSOCIATO - PA;17/07/67;DIET - SAPIENZA UNIV. DI ROMA;OLIVIERI@DIET.UNIROMA1.IT;ROMA LA SAPIENZA;Sistema elettronici integrati
PIERO;OLIVO;PROFESSORE ORDINARIO - PO;25/07/56;UNIVERSIT_ DI FERRARA;PIERO.OLIVO@UNIFE.IT;FERRARA;Sistema elettronici integrati
GIANCARLO;ORENGO;PROFESSORE ASSOCIATO - PA;19/09/60;UNIVERSIT_ DI ROMA \;ORENGO@ING.UNIROMA2.IT;ROMA TOR VERGATA;Elettronica delle microonde e delle onde millimetriche
MARCO;OTTAVI;PROFESSORE ASSOCIATO - PA;29/10/71;UNIVERSIT_ DI ROMA TOR VERGATA;OTTAVI@ING.UNIROMA2.IT;ROMA TOR VERGATA;Sistema elettronici integrati
ALESSANDRO;PACCAGNELLA;PROFESSORE ORDINARIO - PO;26/02/58;UNIVERSITA\' DI PADOVA;ALESSANDRO.PACCAGNELLA@UNIPD.IT;PADOVA;Dispositivi micro e nano elettronici
ELIA;PALANGE;PROFESSORE ASSOCIATO - PA;17/10/52;DIPARTIMENTO DI INGEGNERIA INDUSTRIALE E DELL\'INFORMAZIONE E DI ECONOMIA;ELIA.PALANGE@UNIVAQ.IT;L\'AQUILA;Optoelettronica e Fotonica
PIERPAOLO;PALESTRI;PROFESSORE ASSOCIATO - PA;28/03/73;UNIVERSIT_ DEGLI STUDI DI UDINE;PALESTRI@UNIUD.IT;UDINE;Dispositivi micro e nano elettronici
FABRIZIO;PALMA;PROFESSORE ORDINARIO - PO;18/10/54;UNIVERSIT_ DI ROMA LA SAPIENZA;FABRIZIO.PALMA@UNIROMA1.IT;ROMA LA SAPIENZA;Sensori, microsistemi e strumentazione
GIUSEPPE;PALMISANO;PROFESSORE ORDINARIO - PO;09/01/56;DIEEI, UNIVERSIT_ DI CATANIA;GIUSEPPE.PALMISANO@DIEEI.UNICT.IT;CATANIA;Sistema elettronici integrati
GAETANO;PALUMBO;PROFESSORE ORDINARIO - PO;11/09/64;UNIVERSIT_ DI CATANIA;GAETANO.PALUMBO@DIEEI.UNICT.IT;CATANIA;Sistema elettronici integrati
FRANCESCA;PALUMBO;RICERCATORE UNIVERSITARIO - RTDA;07/03/80;DIP. INGENGNERIA ELETTRICA ED ELETTRONICA;FRANCESCA.PALUMBO@DIEE.UNICA.IT;CAGLIARI;Sistemi elettronici ed applicazioni
LUCIO;PANCHERI;RICERCATORE UNIVERSITARIO - RTDB;05/12/77;UNIVERSIT_ DI TRENTO;LUCIO.PANCHERI@UNITN.IT;TRENTO;Sensori, microsistemi e strumentazione
VITTORIO;PASSARO;PROFESSORE ASSOCIATO - PA;23/11/62;POLITECNICO DI BARI;VITTORIO.PASSARO@POLIBA.IT;BARI;Optoelettronica e Fotonica
DANIELE;PASSERI;RICERCATORE UNIVERSITARIO - RU;31/12/67;UNIVERSIT_ DEGLI STUDI DI PERUGIA;DANIELE.PASSERI@UNIPG.IT;PERUGIA;Dispositivi micro e nano elettronici
ROBERTO;PASSERONE;RICERCATORE UNIVERSITARIO - RU;23/04/69;UNIVERSITA\' DEGLI STUDI DI TRENTO, DIPARTIMENTO DI INGEGNERIA E SCIENZA DELL\'INFORMAZIONE;ROBERTO.PASSERONE@UNITN.IT;TRENTO;Sistemi elettronici ed applicazioni
PAOLO;PAVAN;PROFESSORE ORDINARIO - PO;13/12/64;DIEF - UNIVERSIT_ DI MODENA E REGGIO EMILIA;PAOLO.PAVAN@UNIMORE.IT;MODENA E REGGIO EMILIA;Dispositivi micro e nano elettronici
BRUNO;PELLEGRINI;PROFESSORE ORDINARIO - PO;08/07/36;UNIVERSIT_ DI PISA - DIPARTIMENTO DI INGEGNERIA DELL\'INFORMAZIONE;B.PELLEGRINI@IET.UNIPI.IT;PISA;Dispositivi micro e nano elettronici
GIORGIO;PENNAZZA;PROFESSORE ASSOCIATO - PA;09/05/74;UNIVERSIT_ CAMPUS BIO-MEDICO DI ROMA;G.PENNAZZA@UNICAMPUS.IT;ROMA TOR VERGATA;Sensori, microsistemi e strumentazione
SALVATORE;PENNISI;PROFESSORE ASSOCIATO - PA;11/11/65;DIEEI - UNIV. CATANIA;SALVATORE.PENNISI@DIEEI.UNICT.IT;CATANIA;Sistema elettronici integrati
STEFANIA;PERRI;PROFESSORE ASSOCIATO - PA;06/04/71;DIMES - UNIVERSIT_ DELLA CALABRIA;STEFANIA.PERRI@UNICAL.IT;COSENZA;Sistema elettronici integrati
GIOVANNI VITO;PERSIANO;PROFESSORE ASSOCIATO - PA;25/06/65;DIPARTIMENTO DI INGEGNERIA;PERSIANO@UNISANNIO.IT;BENEVENTO;Sensori, microsistemi e strumentazione
NICOLA;PETRA;PROFESSORE ASSOCIATO - PA;31/08/74;UNIVERSIT_ DI NAPOLI FEDERICO II, DEPT. DIETI;NICOLA.PETRA@UNINA.IT;NAPOLI FEDERICO II;Sistema elettronici integrati
FORTUNATO;PEZZIMENTI;RICERCATORE UNIVERSITARIO - RU;05/07/73;DIIES UNIVERSITA MEDITERRANEA DI REGGIO CALABRIA;FORTUNATO.PEZZIMENTI@UNIRC.IT;COSENZA;Sistema elettronici integrati
GIANLUCA;PICCININI;PROFESSORE ORDINARIO - PO;08/03/63;POLITECNICO DI TORINO;GIANLUCA.PICCININI@POLITO.IT;TORINO;Sistemi elettronici ed applicazioni
MASSIMILIANO;PIERACCINI;PROFESSORE ASSOCIATO - PA;19/02/68;UNIVERSIT_ DI FIRENZE;MASSIMILIANO.PIERACCINI@UNIFI.IT;FIRENZE;Sistema elettronici integrati
FRANCESCO;PIERI;RICERCATORE UNIVERSITARIO - RU;15/12/70;DIPARTIMENTO DI INGEGNERIA DELL\'INFORMAZIONE;FRANCESCO.PIERI@IET.UNIPI.IT;PISA;Sensori, microsistemi e strumentazione
MARCO;PIROLA;PROFESSORE ASSOCIATO - PA;28/03/63;POLITECNICO DI TORINO;MARCO.PIROLA@POLITO.IT;TORINO;Elettronica delle microonde e delle onde millimetriche
MARCO;PISCO;RICERCATORE UNIVERSITARIO - RTDA;26/01/77;UNIVERSITA\' DEGLI STUDI DEL SANNIO;PISCO@UNISANNIO.IT;BENEVENTO;Optoelettronica e Fotonica
PISANA;PLACIDI;RICERCATORE UNIVERSITARIO - RU;01/08/68;UNIVERSIT_ DEGLI STUDI DI PERUGIA (DIPARTIMENTO DI INGEGNERIA);PISANA.PLACIDI@UNIPG.IT;PERUGIA;Sistemi elettronici ed applicazioni
ALBERTO;PULLIA;PROFESSORE ASSOCIATO - PA;28/02/65;DIP. DI FISICA - UNI MI;ALBERTO.PULLIA@MI.INFN.IT;MILANO;Sensori, microsistemi e strumentazione
ANTONIO;RAFFO;RICERCATORE UNIVERSITARIO - RU;25/03/76;UNIVERSIT_ DI FERRARA - DIPARTIMENTO DI INGEGNERIA;ANTONIO.RAFFO@UNIFE.IT;FERRARA;Elettronica delle microonde e delle onde millimetriche
LUIGI;RAFFO;PROFESSORE ORDINARIO - PO;29/08/65;UNIVERSIT_ DEGLI STUDI DI CAGLIARI;RAFFO@UNICA.IT;CAGLIARI;Sistemi elettronici ed applicazioni
GIOVANNI;RAMPONI;PROFESSORE ORDINARIO - PO;28/11/56;DIA - UNIVERSIT_ DI TRIESTE;RAMPONI@UNITS.IT;TRIESTE;Sistemi elettronici ed applicazioni
SANDRO;RAO;RICERCATORE UNIVERSITARIO - RTDA;20/02/82;UNIVERSIT_ MEDITERRANEA - DIIES;SANDRO.RAO@UNIRC.IT;COSENZA;Optoelettronica e Fotonica
LODOVICO;RATTI;PROFESSORE ASSOCIATO - PA;11/02/71;UNIVERSIT_ DI PAVIA;LODOVICO.RATTI@UNIPV.IT;PAVIA;Sensori, microsistemi e strumentazione
VALERIO;RE;PROFESSORE ORDINARIO - PO;18/05/61;UNIVERSIT_ DI BERGAMO;VALERIO.RE@UNIBG.IT;BERGAMO;Sensori, microsistemi e strumentazione
MARCO;RE;PROFESSORE ASSOCIATO - PA;28/01/62;UNIVERSITA TOR VERGATA;MARCO.RE@UNIROMA2.IT;ROMA TOR VERGATA;Sistemi elettronici ed applicazioni
ANDREA;REALE;PROFESSORE ASSOCIATO - PA;25/03/71;DIPARTIMENTO INGEGNERIA ELETTRONICA, UNIVERSIT_ DEGLI STUDI DI ROMA TOR VERGATA;REALE@UNIROMA2.IT;ROMA TOR VERGATA;Optoelettronica e Fotonica
IVAN;RECH;PROFESSORE ASSOCIATO - PA;29/04/76;POLITECNICO DI MILANO - DEIB;IVAN.RECH@POLIMI.IT;MILANO;Sensori, microsistemi e strumentazione
SUSANNA;REGGIANI;PROFESSORE ASSOCIATO - PA;31/05/72;UNIVERSIT_ DI BOLOGNA;SUSANNA.REGGIANI@UNIBO.IT;BOLOGNA;Dispositivi micro e nano elettronici
STEFANO;RICCI;RICERCATORE UNIVERSITARIO - RU;06/02/70;DIP. INGEGNERIA DELL\'INFORMAZIONE;STEFANO.RICCI@UNIFI.IT;FIRENZE;Sistemi elettronici ed applicazioni
ANNA;RICHELLI;RICERCATORE UNIVERSITARIO - RU;13/05/74;UNIVERSIT_ DI BRESCIA-DII;ANNA.RICHELLI@ING.UNIBS.IT;BRESCIA;Dispositivi micro e nano elettronici
STEFANO;RINALDI;RICERCATORE UNIVERSITARIO - RTDA;17/02/82;UNIVERSIT_ DI BRESCIA;STEFANO.RINALDI@UNIBS.IT;BRESCIA;Sensori, microsistemi e strumentazione
NICCOLO';RINALDI;PROFESSORE ORDINARIO - PO;18/02/64;DIPARTIMENTO DI INGEGNERIA ELETTRICA E TECNOLOGIE DELL\'INFORMAZIONE;NIRINALD@UNINA.IT;NAPOLI FEDERICO II;Dispositivi micro e nano elettronici
GIANCARLO;RIPAMONTI;PROFESSORE ORDINARIO - PO;02/08/56;POLITECNICO DI MILANO - DEIB;GIANCARLO.RIPAMONTI@POLIMI.IT;MILANO;Sistemi elettronici ed applicazioni
SANTINA;ROCCHI;PROFESSORE ORDINARIO - PO;01/11/52;UNIVERSIT_ DI SIENA;SANTINA.ROCCHI@UNISI.IT;SIENA;Sensori, microsistemi e strumentazione
ALDO;ROMANI;PROFESSORE ASSOCIATO - PA;11/04/75;UNIVERSIT_ DI BOLOGNA;ALDO.ROMANI@UNIBO.IT;BOLOGNA;Sistemi elettronici ed applicazioni
LUCA;ROSELLI;PROFESSORE ASSOCIATO - PA;04/05/62;UNIVERSIT_ DEGLI STUDI DI PERUGIA;LUCA.ROSELLI@UNIPG.IT;PERUGIA;Elettronica delle microonde e delle onde millimetriche
LEOPOLDO;ROSSETTO;PROFESSORE ORDINARIO - PO;13/05/60;UNIVERSIT_ DI PADOVA - DIPARTIMENTO DI INGEGNERIA DELL\'INFORMAZIONE;ROSSETTO@DEI.UNIPD.IT;PADOVA;Elettronica di potenza ed applicazioni industriali
MARIA CRISTINA;ROSSI;PROFESSORE ASSOCIATO - PA;02/07/62;UNIVERSIT_ DI ROMA TRE, DIP. INGEGNERIA;MCROSSI@UNIROMA3.IT;ROMA 3;Dispositivi micro e nano elettronici
ALFREDO;RUBINO;PROFESSORE ASSOCIATO - PA;13/06/61;UNIVERSITA DEGLI STUDI DI SALERNO;ARUBINO@UNISA.IT;SALERNO;Dispositivi micro e nano elettronici
MASSIMO;RUDAN;PROFESSORE ORDINARIO - PO;07/09/49;UNIVERSIT_ DI BOLOGNA;MASSIMO.RUDAN@UNIBO.IT;BOLOGNA;Dispositivi micro e nano elettronici
MASSIMO;RUO ROCH;RICERCATORE UNIVERSITARIO - RU;11/12/65;POLITECNICO DI TORINO;MASSIMO.RUOROCH@POLITO.IT;TORINO;Sistemi elettronici ed applicazioni
STEFANO;SAGGINI;RICERCATORE UNIVERSITARIO - RU;16/07/75;UNIVERSIT_ DEGLI STUDI DI UDINE;STEFANO.SAGGINI@UNIUD.IT;UDINE;Elettronica di potenza ed applicazioni industriali
CARLO;SAMORI;PROFESSORE ORDINARIO - PO;13/03/66;POLITECNICO DI MILANO;CARLO.SAMORI@POLIMI.IT;MILANO;Sistema elettronici integrati
MARCO;SAMPIETRO;PROFESSORE ORDINARIO - PO;17/07/57;POLITECNICO DI MILANO;MARCO.SAMPIETRO@POLIMI.IT;MILANO;Sensori, microsistemi e strumentazione
ENRICO;SANGIORGI;PROFESSORE ORDINARIO - PO;28/12/54;UNIVERSIT_ DI BOLOGNA;ENRICO.SANGIORGI@UNIBO.IT;BOLOGNA;Dispositivi micro e nano elettronici
ANNUNZIATA;SANSEVERINO;PROFESSORE ASSOCIATO - PA;16/11/65;UNIVERSIT_ DEGLI STUDI DI CASSINO E DEL LAZIO MERIDIONALE;A.SANSEVERINO@UNICAS.IT;CASSINO;Dispositivi micro e nano elettronici
ALBERTO;SANTARELLI;PROFESSORE ASSOCIATO - PA;19/02/65;DEI - UNIV. DI BOLOGNA;ALBERTO.SANTARELLI@UNIBO.IT;BOLOGNA;Elettronica delle microonde e delle onde millimetriche
MARCO;SANTONICO;RICERCATORE UNIVERSITARIO - RTDA;23/10/74;UNIVERSIT_ CAMPUS BIO-MEDICO DI ROMA;M.SANTONICO@UNICAMPUS.IT;ROMA TOR VERGATA;Sensori, microsistemi e strumentazione
SERGIO;SAPONARA;PROFESSORE ASSOCIATO - PA;19/06/75;DIP. INGEGNERIA INFORMAZIONE - UNIVERSITA\' DI PISA;SERGIO.SAPONARA@IET.UNIPI.IT;PISA;Sistemi elettronici ed applicazioni
EMILIO;SARDINI;PROFESSORE ORDINARIO - PO;20/03/58;UNIVERSIT_ DEGLI STUDI DI BRESCIA - DIPARTIMENTO DI INGEGNERIA DELL\'INFORMAZIONE;EMILIO.SARDINI@UNIBS.IT;BRESCIA;Sensori, microsistemi e strumentazione
ALESSANDRO STUART;SAVOIA;RICERCATORE UNIVERSITARIO - RTDA;09/11/78;UNIVERSIT_ DEGLI STUDI ROMA TRE - DIPARTIMENTO DI INGEGNERIA;ALESSANDRO.SAVOIA@UNIROMA3.IT;ROMA 3;Sensori, microsistemi e strumentazione
GRAZIELLA;SCANDURRA;RICERCATORE UNIVERSITARIO - RU;04/06/76;DIPARTIMENTO DI INGEGNERIA, UNIVERSIT_ DI MESSINA;GSCANDURRA@UNIME.IT;MESSINA;Sensori, microsistemi e strumentazione
ANDREA;SCORZONI;PROFESSORE ASSOCIATO - PA;31/07/58;DIP. DI INGEGNERIA, UNIV. DI PERUGIA;ANDREA.SCORZONI@UNIPG.IT;PERUGIA;Sistemi elettronici ed applicazioni
GIUSEPPE;SCOTTI;PROFESSORE ASSOCIATO - PA;14/04/75;UNIVERSIT_ LA SAPIENZA DIP. DIET;SCOTTI@DIET.UNIROMA1.IT;ROMA LA SAPIENZA;Sistema elettronici integrati
LUCIO;SCUCCHIA;RICERCATORE UNIVERSITARIO - RU;10/06/57;UNIVERSIT_ DI ROMA TOR VERGATA;SCUCCHIA@UNIROMA2.IT;ROMA TOR VERGATA;Elettronica delle microonde e delle onde millimetriche
LUCA;SELMI;PROFESSORE ORDINARIO - PO;06/08/61;DPIA - UNIVERSIT_ DEGLI STUDI DI UDINE;LUCA.SELMI@UNIUD.IT;UDINE;Dispositivi micro e nano elettronici
MAURO;SERPELLONI;RICERCATORE UNIVERSITARIO - RU;11/01/79;UNIVERSIT_ DEGLI STUDI DI BRESCIA - DIPARTIMENTO DI INGEGNERIA DELL\'INFORMAZIONE;MAURO.SERPELLONI@UNIBS.IT;BRESCIA;Sensori, microsistemi e strumentazione
GIANLUCA;SETTI;PROFESSORE ORDINARIO - PO;13/09/65;UNIVERSIT_ DI FERRARA;GIANLUCA.SETTI@UNIFE.IT;FERRARA;Sensori, microsistemi e strumentazione
EMILIANO;SISINNI;PROFESSORE ASSOCIATO - PA;23/09/75;UNIVERSIT_ DI BRESCIA;EMILIANO.SISINNI@UNIBS.IT;BRESCIA;Sistemi elettronici ed applicazioni
ALESSANDRO;SOTTOCORNOLA SPINELLI;PROFESSORE ORDINARIO - PO;23/08/66;POLITECNICO DI MILANO - DEIB;ALESSANDRO.SPINELLI@POLIMI.IT;MILANO;Dispositivi micro e nano elettronici
GIORGIO;SPIAZZI;PROFESSORE ASSOCIATO - PA;11/11/62;UNIVERSIT_ DI PADOVA - DIP. INGEGNERIA DELL\'INFORMAZIONE - DEI;SPIAZZI@DEI.UNIPD.IT;PADOVA;Elettronica di potenza ed applicazioni industriali
SALVATORE;STIVALA;RICERCATORE UNIVERSITARIO - RTDA;07/12/78;DEIM - UNIVERSIT_ DEGLI STUDI DI PALERMO;SALVATORE.STIVALA@UNIPA.IT;PALERMO;Optoelettronica e Fotonica
VINCENZO;STORNELLI;PROFESSORE ASSOCIATO - PA;31/05/80;UNIVERSIT_ DEGLI STUDI DELL\'AQUILA;VINCENZO.STORNELLI@UNIVAQ.IT;L\'AQUILA;Sistemi elettronici ed applicazioni
ANTONIO GIUSEPPE MARIA;STROLLO;PROFESSORE ORDINARIO - PO;25/01/63;UNIV. DI NAPOLI FEDERICO II;ANTONIO.STROLLO@UNINA.IT;NAPOLI FEDERICO II;Sistema elettronici integrati
FRANCESCO;SVELTO;PROFESSORE ORDINARIO - PO;07/03/66;UNIVERSIT_ DI PAVIA;FRANCESCO.SVELTO@UNIPV.IT;PAVIA;Elettronica delle microonde e delle onde millimetriche
MARCO;TARTAGNI;PROFESSORE ASSOCIATO - PA;16/01/62;DEI - UNIVERSITA\' DI BOLOGNA;MARCO.TARTAGNI@UNIBO.IT;BOLOGNA;Sensori, microsistemi e strumentazione
PAOLO;TENTI;PROFESSORE ORDINARIO - PO;13/06/51;DIPT ING INFORMAZIONE - UNIVERSIT_ DI PADOVA;TENTI@DEI.UNIPD.IT;PADOVA;Elettronica di potenza ed applicazioni industriali
PASQUALE;TOMMASINO;RICERCATORE UNIVERSITARIO - RU;07/11/67;UNIV. LA SAPIENZA - DIET;TOMMASINO@DIE.UNIROMA1.IT;ROMA LA SAPIENZA;Elettronica delle microonde e delle onde millimetriche
GUIDO;TORELLI;PROFESSORE ORDINARIO - PO;26/12/49;UNIVERSIT_ DI PAVIA - DIPARTIMENTO DI INGEGNERIA INDUSTRIALE E DELL\'INFORMAZIONE;GUIDO.TORELLI@UNIPV.IT;PAVIA;Sistema elettronici integrati
FABRIZIO;TORRICELLI;RICERCATORE UNIVERSITARIO - RTDA;29/11/82;UNIVERSITA\' DEGLI STUDI DI BRESCIA;FABRIZIO.TORRICELLI@UNIBS.IT;BRESCIA;Dispositivi micro e nano elettronici
PIERO;TORTOLI;PROFESSORE ORDINARIO - PO;19/04/53;UNIVERSIT_ DEGLI STUDI DI FIRENZE;PIERO.TORTOLI@UNIFI.IT;FIRENZE;Sistemi elettronici ed applicazioni
ALBERTO;TOSI;PROFESSORE ASSOCIATO - PA;03/08/75;POLITECNICO DI MILANO - DEIB;ALBERTO.TOSI@POLIMI.IT;MILANO;Sensori, microsistemi e strumentazione
GIANLUCA;TRAVERSI;RICERCATORE UNIVERSITARIO - RU;02/10/75;UNIVERSIT_ DI BERGAMO;GIANLUCA.TRAVERSI@UNIBG.IT;BERGAMO;Sensori, microsistemi e strumentazione
ALESSANDRO;TRIFILETTI;PROFESSORE ASSOCIATO - PA;04/10/59;UNIV. LA SAPIENZA - DIET;TRIFILETTI@DIE.UNIROMA1.IT;ROMA LA SAPIENZA;Sistema elettronici integrati
MAURIZIO;VALLE;PROFESSORE ASSOCIATO - PA;01/08/59;DITEN - UNIVERSIT_ DI GENOVA;MAURIZIO.VALLE@UNIGE.IT;GENOVA;Sensori, microsistemi e strumentazione
GIORGIO;VANNINI;PROFESSORE ORDINARIO - PO;11/02/60;UNIVERSIT_ DI FERRARA;GIORGIO.VANNINI@UNIFE.IT;FERRARA;Elettronica delle microonde e delle onde millimetriche
MASSIMO;VANZI;PROFESSORE ORDINARIO - PO;13/05/54;UNIVERSIT_ DI CAGLIARI - DIEE;VANZI@DIEE.UNICA.IT;CAGLIARI;Optoelettronica e Fotonica
FRANCESCO;VELARDI;RICERCATORE UNIVERSITARIO - RU;24/07/67;UNIVERSIT_ DI CASSINO E DEL LAZIO MERIDIONALE;VELARDI@UNICAS.IT;CASSINO;Elettronica di potenza ed applicazioni industriali
GIOVANNI;VERZELLESI;PROFESSORE ORDINARIO - PO;19/07/64;DISMI, UNIV. MODENA E REGGIO EMILIA;GIOVANNI.VERZELLESI@UNIMORE.IT;MODENA E REGGIO EMILIA;Dispositivi micro e nano elettronici
VALERIO;VIGNOLI;PROFESSORE ASSOCIATO - PA;29/12/64;DIPARTIMENTO DI INGEGNERIA DELL\'INFORMAZIONE E SCIENZE MATEMATICHE - UNIVERSIT_ DI SIENA;VIGNOLI@DII.UNISI.IT;SIENA;Sensori, microsistemi e strumentazione
FEDERICA ALBERTA;VILLA;RICERCATORE UNIVERSITARIO - RTDA;22/02/86;POLITECNICO DI MILANO;FEDERICA.VILLA@POLIMI.IT;MILANO;Optoelettronica e Fotonica
PAOLO;VISCONTI;RICERCATORE UNIVERSITARIO - RU;14/10/71;UNIVERSIT_ DEL SALENTO;PAOLO.VISCONTI@UNISALENTO.IT;LECCE;Sensori, microsistemi e strumentazione
DANIELE;VOGRIG;RICERCATORE UNIVERSITARIO - RU;22/09/76;DIPERTIMENTO DI INGEGNERIA DELL\'INFORMAZIONE;VOGRIG@DEI.UNIPD.IT;PADOVA;Sistema elettronici integrati
CRISTIAN;ZAMBELLI;RICERCATORE UNIVERSITARIO - RTDA;05/11/83;UNIVERSIT_ DEGLI STUDI DI FERRARA;CRISTIAN.ZAMBELLI@UNIFE.IT;FERRARA;Dispositivi micro e nano elettronici
ENRICO;ZANONI;PROFESSORE ORDINARIO - PO;24/08/56;DIPARTIMENTO DI INGEGNERIA DELL\'INFORMAZIONE;ENRICO.ZANONI@UNIPD.IT;PALERMO;Dispositivi micro e nano elettronici
FRANCO;ZAPPA;PROFESSORE ORDINARIO - PO;06/11/65;POLITECNICO DI MILANO;FRANCO.ZAPPA@POLIMI.IT;MILANO;Sistemi elettronici ed applicazioni
LUIGI;ZENI;PROFESSORE ORDINARIO - PO;02/12/62;SECONDA UNIVERSIT_ DI NAPOLI - DIPARTIMENTO DI INGEGNERIA INDUSTRIALE E DELLA INFORMAZIONE;LUIGI.ZENI@UNINA2.IT;NAPOLI SECONDA;Optoelettronica e Fotonica